<?xml version="1.0" encoding="UTF-8"?>
<svg xmlns="http://www.w3.org/2000/svg" xmlns:xlink="http://www.w3.org/1999/xlink" width="595.91998pt" height="421.91998pt" viewBox="0 0 595.91998 421.91998" version="1.1">
<defs>
<g>
<symbol overflow="visible" id="glyph0-0">
<path style="stroke:none;" d="M 0.859375 -5.9375 L 5.609375 -5.9375 L 5.609375 0 L 0.859375 0 Z M 1.1875 -5.625 L 1.1875 -0.328125 L 5.296875 -0.328125 L 5.296875 -5.625 Z M 1.1875 -5.625 "/>
</symbol>
<symbol overflow="visible" id="glyph0-1">
<path style="stroke:none;" d="M 3.46875 -0.734375 C 3.320312 -0.441406 3.132812 -0.234375 2.90625 -0.109375 C 2.675781 0.015625 2.390625 0.078125 2.046875 0.078125 C 1.460938 0.078125 1.035156 -0.113281 0.765625 -0.5 C 0.492188 -0.882812 0.359375 -1.472656 0.359375 -2.265625 C 0.359375 -3.859375 0.921875 -4.65625 2.046875 -4.65625 C 2.390625 -4.65625 2.675781 -4.585938 2.90625 -4.453125 C 3.132812 -4.328125 3.320312 -4.128906 3.46875 -3.859375 L 3.46875 -6.265625 L 4.21875 -6.265625 L 4.21875 -0.9375 C 4.21875 -0.46875 4.226562 -0.15625 4.25 0 L 3.515625 0 C 3.515625 -0.0390625 3.507812 -0.144531 3.5 -0.3125 C 3.488281 -0.476562 3.484375 -0.617188 3.484375 -0.734375 Z M 1.15625 -2.28125 C 1.15625 -1.644531 1.238281 -1.1875 1.40625 -0.90625 C 1.582031 -0.632812 1.859375 -0.5 2.234375 -0.5 C 2.660156 -0.5 2.972656 -0.644531 3.171875 -0.9375 C 3.367188 -1.238281 3.46875 -1.707031 3.46875 -2.34375 C 3.46875 -2.945312 3.367188 -3.390625 3.171875 -3.671875 C 2.972656 -3.953125 2.664062 -4.09375 2.25 -4.09375 C 1.863281 -4.09375 1.582031 -3.945312 1.40625 -3.65625 C 1.238281 -3.375 1.15625 -2.914062 1.15625 -2.28125 Z M 1.15625 -2.28125 "/>
</symbol>
<symbol overflow="visible" id="glyph0-2">
<path style="stroke:none;" d="M 0.578125 -5.53125 L 0.578125 -6.265625 L 1.34375 -6.265625 L 1.34375 -5.53125 Z M 0.578125 0 L 0.578125 -4.5625 L 1.34375 -4.5625 L 1.34375 0 Z M 0.578125 0 "/>
</symbol>
<symbol overflow="visible" id="glyph0-3">
<path style="stroke:none;" d="M 1.75 0.078125 C 1.289062 0.078125 0.941406 -0.0390625 0.703125 -0.28125 C 0.472656 -0.519531 0.359375 -0.851562 0.359375 -1.28125 C 0.359375 -1.75 0.515625 -2.109375 0.828125 -2.359375 C 1.140625 -2.617188 1.644531 -2.753906 2.34375 -2.765625 L 3.359375 -2.78125 L 3.359375 -3.03125 C 3.359375 -3.40625 3.28125 -3.671875 3.125 -3.828125 C 2.96875 -3.992188 2.722656 -4.078125 2.390625 -4.078125 C 2.046875 -4.078125 1.796875 -4.015625 1.640625 -3.890625 C 1.484375 -3.773438 1.390625 -3.59375 1.359375 -3.34375 L 0.5625 -3.421875 C 0.695312 -4.242188 1.3125 -4.65625 2.40625 -4.65625 C 2.976562 -4.65625 3.40625 -4.519531 3.6875 -4.25 C 3.976562 -3.988281 4.125 -3.609375 4.125 -3.109375 L 4.125 -1.140625 C 4.125 -0.921875 4.15625 -0.753906 4.21875 -0.640625 C 4.28125 -0.523438 4.394531 -0.46875 4.5625 -0.46875 C 4.632812 -0.46875 4.71875 -0.476562 4.8125 -0.5 L 4.8125 -0.03125 C 4.613281 0.0195312 4.414062 0.046875 4.21875 0.046875 C 3.9375 0.046875 3.726562 -0.0234375 3.59375 -0.171875 C 3.46875 -0.328125 3.398438 -0.5625 3.390625 -0.875 L 3.359375 -0.875 C 3.171875 -0.519531 2.945312 -0.269531 2.6875 -0.125 C 2.425781 0.0078125 2.113281 0.078125 1.75 0.078125 Z M 1.921875 -0.484375 C 2.203125 -0.484375 2.445312 -0.546875 2.65625 -0.671875 C 2.875 -0.796875 3.046875 -0.96875 3.171875 -1.1875 C 3.296875 -1.414062 3.359375 -1.644531 3.359375 -1.875 L 3.359375 -2.25 L 2.53125 -2.234375 C 2.175781 -2.234375 1.90625 -2.195312 1.71875 -2.125 C 1.53125 -2.0625 1.382812 -1.957031 1.28125 -1.8125 C 1.1875 -1.675781 1.140625 -1.492188 1.140625 -1.265625 C 1.140625 -1.015625 1.207031 -0.820312 1.34375 -0.6875 C 1.476562 -0.550781 1.671875 -0.484375 1.921875 -0.484375 Z M 1.921875 -0.484375 "/>
</symbol>
<symbol overflow="visible" id="glyph0-4">
<path style="stroke:none;" d="M 2.3125 1.796875 C 1.8125 1.796875 1.410156 1.695312 1.109375 1.5 C 0.816406 1.300781 0.628906 1.023438 0.546875 0.671875 L 1.3125 0.5625 C 1.363281 0.769531 1.472656 0.929688 1.640625 1.046875 C 1.816406 1.160156 2.046875 1.21875 2.328125 1.21875 C 3.085938 1.21875 3.46875 0.773438 3.46875 -0.109375 L 3.46875 -0.84375 L 3.453125 -0.84375 C 3.316406 -0.550781 3.125 -0.332031 2.875 -0.1875 C 2.625 -0.0390625 2.328125 0.03125 1.984375 0.03125 C 1.429688 0.03125 1.019531 -0.148438 0.75 -0.515625 C 0.488281 -0.890625 0.359375 -1.476562 0.359375 -2.28125 C 0.359375 -3.082031 0.5 -3.675781 0.78125 -4.0625 C 1.0625 -4.445312 1.492188 -4.640625 2.078125 -4.640625 C 2.398438 -4.640625 2.679688 -4.5625 2.921875 -4.40625 C 3.160156 -4.257812 3.34375 -4.050781 3.46875 -3.78125 C 3.46875 -3.863281 3.472656 -4.007812 3.484375 -4.21875 C 3.503906 -4.425781 3.519531 -4.539062 3.53125 -4.5625 L 4.25 -4.5625 C 4.226562 -4.414062 4.21875 -4.101562 4.21875 -3.625 L 4.21875 -0.125 C 4.21875 1.15625 3.582031 1.796875 2.3125 1.796875 Z M 3.46875 -2.28125 C 3.46875 -2.65625 3.414062 -2.972656 3.3125 -3.234375 C 3.21875 -3.503906 3.078125 -3.710938 2.890625 -3.859375 C 2.703125 -4.003906 2.492188 -4.078125 2.265625 -4.078125 C 1.867188 -4.078125 1.582031 -3.9375 1.40625 -3.65625 C 1.226562 -3.375 1.140625 -2.914062 1.140625 -2.28125 C 1.140625 -1.65625 1.222656 -1.207031 1.390625 -0.9375 C 1.554688 -0.664062 1.84375 -0.53125 2.25 -0.53125 C 2.488281 -0.53125 2.703125 -0.597656 2.890625 -0.734375 C 3.078125 -0.878906 3.21875 -1.082031 3.3125 -1.34375 C 3.414062 -1.601562 3.46875 -1.914062 3.46875 -2.28125 Z M 3.46875 -2.28125 "/>
</symbol>
<symbol overflow="visible" id="glyph0-5">
<path style="stroke:none;" d="M 0.59375 0 L 0.59375 -3.5 C 0.59375 -3.820312 0.585938 -4.175781 0.578125 -4.5625 L 1.296875 -4.5625 C 1.316406 -4.039062 1.328125 -3.726562 1.328125 -3.625 L 1.34375 -3.625 C 1.457031 -4.019531 1.59375 -4.289062 1.75 -4.4375 C 1.914062 -4.582031 2.140625 -4.65625 2.421875 -4.65625 C 2.523438 -4.65625 2.628906 -4.640625 2.734375 -4.609375 L 2.734375 -3.90625 C 2.628906 -3.9375 2.492188 -3.953125 2.328125 -3.953125 C 2.015625 -3.953125 1.773438 -3.816406 1.609375 -3.546875 C 1.441406 -3.273438 1.359375 -2.882812 1.359375 -2.375 L 1.359375 0 Z M 0.59375 0 "/>
</symbol>
<symbol overflow="visible" id="glyph0-6">
<path style="stroke:none;" d="M 3.234375 0 L 3.234375 -2.890625 C 3.234375 -3.335938 3.171875 -3.644531 3.046875 -3.8125 C 2.929688 -3.976562 2.71875 -4.0625 2.40625 -4.0625 C 2.082031 -4.0625 1.828125 -3.9375 1.640625 -3.6875 C 1.453125 -3.445312 1.359375 -3.097656 1.359375 -2.640625 L 1.359375 0 L 0.59375 0 L 0.59375 -3.59375 C 0.59375 -4.125 0.585938 -4.445312 0.578125 -4.5625 L 1.296875 -4.5625 C 1.296875 -4.550781 1.296875 -4.515625 1.296875 -4.453125 C 1.296875 -4.390625 1.296875 -4.316406 1.296875 -4.234375 C 1.304688 -4.160156 1.316406 -4.007812 1.328125 -3.78125 L 1.34375 -3.78125 C 1.5 -4.101562 1.679688 -4.328125 1.890625 -4.453125 C 2.109375 -4.585938 2.367188 -4.65625 2.671875 -4.65625 C 3.015625 -4.65625 3.285156 -4.582031 3.484375 -4.4375 C 3.691406 -4.300781 3.832031 -4.082031 3.90625 -3.78125 L 3.921875 -3.78125 C 4.078125 -4.09375 4.265625 -4.316406 4.484375 -4.453125 C 4.710938 -4.585938 4.988281 -4.65625 5.3125 -4.65625 C 5.769531 -4.65625 6.101562 -4.523438 6.3125 -4.265625 C 6.519531 -4.015625 6.625 -3.609375 6.625 -3.046875 L 6.625 0 L 5.875 0 L 5.875 -2.890625 C 5.875 -3.335938 5.8125 -3.644531 5.6875 -3.8125 C 5.570312 -3.976562 5.359375 -4.0625 5.046875 -4.0625 C 4.710938 -4.0625 4.453125 -3.9375 4.265625 -3.6875 C 4.078125 -3.445312 3.984375 -3.097656 3.984375 -2.640625 L 3.984375 0 Z M 3.234375 0 "/>
</symbol>
<symbol overflow="visible" id="glyph0-7">
<path style="stroke:none;" d="M 4.4375 -2.296875 C 4.4375 -0.710938 3.878906 0.078125 2.765625 0.078125 C 2.054688 0.078125 1.582031 -0.179688 1.34375 -0.703125 L 1.328125 -0.703125 C 1.335938 -0.679688 1.34375 -0.441406 1.34375 0.015625 L 1.34375 1.796875 L 0.578125 1.796875 L 0.578125 -3.625 C 0.578125 -4.101562 0.570312 -4.414062 0.5625 -4.5625 L 1.296875 -4.5625 C 1.296875 -4.550781 1.296875 -4.507812 1.296875 -4.4375 C 1.304688 -4.375 1.3125 -4.269531 1.3125 -4.125 C 1.320312 -3.976562 1.328125 -3.878906 1.328125 -3.828125 L 1.34375 -3.828125 C 1.476562 -4.109375 1.65625 -4.3125 1.875 -4.4375 C 2.101562 -4.570312 2.398438 -4.640625 2.765625 -4.640625 C 3.328125 -4.640625 3.742188 -4.453125 4.015625 -4.078125 C 4.296875 -3.703125 4.4375 -3.109375 4.4375 -2.296875 Z M 3.640625 -2.28125 C 3.640625 -2.914062 3.550781 -3.367188 3.375 -3.640625 C 3.207031 -3.921875 2.9375 -4.0625 2.5625 -4.0625 C 2.269531 -4.0625 2.035156 -3.992188 1.859375 -3.859375 C 1.691406 -3.734375 1.5625 -3.535156 1.46875 -3.265625 C 1.382812 -3.003906 1.34375 -2.660156 1.34375 -2.234375 C 1.34375 -1.628906 1.4375 -1.1875 1.625 -0.90625 C 1.820312 -0.625 2.132812 -0.484375 2.5625 -0.484375 C 2.9375 -0.484375 3.207031 -0.617188 3.375 -0.890625 C 3.550781 -1.171875 3.640625 -1.632812 3.640625 -2.28125 Z M 3.640625 -2.28125 "/>
</symbol>
<symbol overflow="visible" id="glyph0-8">
<path style="stroke:none;" d="M 1.515625 -4.015625 L 1.515625 0 L 0.765625 0 L 0.765625 -4.015625 L 0.125 -4.015625 L 0.125 -4.5625 L 0.765625 -4.5625 L 0.765625 -5.078125 C 0.765625 -5.492188 0.851562 -5.789062 1.03125 -5.96875 C 1.21875 -6.15625 1.5 -6.25 1.875 -6.25 C 2.082031 -6.25 2.257812 -6.234375 2.40625 -6.203125 L 2.40625 -5.625 C 2.28125 -5.644531 2.171875 -5.65625 2.078125 -5.65625 C 1.878906 -5.65625 1.734375 -5.601562 1.640625 -5.5 C 1.554688 -5.40625 1.515625 -5.226562 1.515625 -4.96875 L 1.515625 -4.5625 L 2.40625 -4.5625 L 2.40625 -4.015625 Z M 1.515625 -4.015625 "/>
</symbol>
<symbol overflow="visible" id="glyph0-9">
<path style="stroke:none;" d="M 0.4375 0 L 0.4375 -0.53125 C 0.582031 -0.863281 0.753906 -1.15625 0.953125 -1.40625 C 1.160156 -1.65625 1.378906 -1.878906 1.609375 -2.078125 C 1.835938 -2.285156 2.0625 -2.476562 2.28125 -2.65625 C 2.507812 -2.832031 2.710938 -3.003906 2.890625 -3.171875 C 3.078125 -3.347656 3.222656 -3.53125 3.328125 -3.71875 C 3.441406 -3.914062 3.5 -4.132812 3.5 -4.375 C 3.5 -4.707031 3.398438 -4.960938 3.203125 -5.140625 C 3.015625 -5.316406 2.75 -5.40625 2.40625 -5.40625 C 2.082031 -5.40625 1.816406 -5.316406 1.609375 -5.140625 C 1.398438 -4.960938 1.28125 -4.71875 1.25 -4.40625 L 0.46875 -4.46875 C 0.519531 -4.945312 0.71875 -5.328125 1.0625 -5.609375 C 1.414062 -5.890625 1.863281 -6.03125 2.40625 -6.03125 C 3.007812 -6.03125 3.472656 -5.890625 3.796875 -5.609375 C 4.117188 -5.328125 4.28125 -4.925781 4.28125 -4.40625 C 4.28125 -4.175781 4.226562 -3.945312 4.125 -3.71875 C 4.019531 -3.488281 3.863281 -3.257812 3.65625 -3.03125 C 3.445312 -2.800781 3.046875 -2.445312 2.453125 -1.96875 C 2.128906 -1.707031 1.867188 -1.46875 1.671875 -1.25 C 1.484375 -1.039062 1.347656 -0.835938 1.265625 -0.640625 L 4.375 -0.640625 L 4.375 0 Z M 0.4375 0 "/>
</symbol>
<symbol overflow="visible" id="glyph0-10">
<path style="stroke:none;" d="M 4.015625 -1.265625 C 4.015625 -0.828125 3.847656 -0.492188 3.515625 -0.265625 C 3.191406 -0.0351562 2.738281 0.078125 2.15625 0.078125 C 1.582031 0.078125 1.140625 -0.015625 0.828125 -0.203125 C 0.523438 -0.390625 0.328125 -0.679688 0.234375 -1.078125 L 0.90625 -1.203125 C 0.976562 -0.953125 1.113281 -0.769531 1.3125 -0.65625 C 1.507812 -0.550781 1.789062 -0.5 2.15625 -0.5 C 2.539062 -0.5 2.820312 -0.554688 3 -0.671875 C 3.175781 -0.785156 3.265625 -0.960938 3.265625 -1.203125 C 3.265625 -1.378906 3.203125 -1.523438 3.078125 -1.640625 C 2.960938 -1.753906 2.765625 -1.847656 2.484375 -1.921875 L 1.9375 -2.0625 C 1.5 -2.175781 1.1875 -2.285156 1 -2.390625 C 0.820312 -2.503906 0.679688 -2.632812 0.578125 -2.78125 C 0.472656 -2.9375 0.421875 -3.128906 0.421875 -3.359375 C 0.421875 -3.773438 0.566406 -4.09375 0.859375 -4.3125 C 1.160156 -4.53125 1.597656 -4.640625 2.171875 -4.640625 C 2.671875 -4.640625 3.066406 -4.550781 3.359375 -4.375 C 3.660156 -4.195312 3.847656 -3.910156 3.921875 -3.515625 L 3.25 -3.4375 C 3.207031 -3.632812 3.09375 -3.785156 2.90625 -3.890625 C 2.71875 -4.003906 2.472656 -4.0625 2.171875 -4.0625 C 1.828125 -4.0625 1.570312 -4.007812 1.40625 -3.90625 C 1.238281 -3.800781 1.15625 -3.644531 1.15625 -3.4375 C 1.15625 -3.300781 1.1875 -3.191406 1.25 -3.109375 C 1.320312 -3.023438 1.425781 -2.953125 1.5625 -2.890625 C 1.695312 -2.835938 1.972656 -2.757812 2.390625 -2.65625 C 2.796875 -2.550781 3.085938 -2.457031 3.265625 -2.375 C 3.441406 -2.289062 3.582031 -2.195312 3.6875 -2.09375 C 3.789062 -1.988281 3.867188 -1.863281 3.921875 -1.71875 C 3.984375 -1.582031 4.015625 -1.429688 4.015625 -1.265625 Z M 4.015625 -1.265625 "/>
</symbol>
<symbol overflow="visible" id="glyph0-11">
<path style="stroke:none;" d="M 2.59375 0 L 1.6875 0 L 0.03125 -4.5625 L 0.84375 -4.5625 L 1.84375 -1.59375 C 1.882812 -1.476562 1.984375 -1.144531 2.140625 -0.59375 L 2.28125 -1.09375 L 2.453125 -1.59375 L 3.484375 -4.5625 L 4.296875 -4.5625 Z M 2.59375 0 "/>
</symbol>
<symbol overflow="visible" id="glyph0-12">
<path style="stroke:none;" d="M 4.953125 0 L 4.078125 0 L 3.28125 -3.234375 L 3.125 -3.9375 C 3.09375 -3.8125 3.050781 -3.628906 3 -3.390625 C 2.945312 -3.148438 2.660156 -2.019531 2.140625 0 L 1.265625 0 L -0.015625 -4.5625 L 0.734375 -4.5625 L 1.515625 -1.46875 C 1.535156 -1.394531 1.59375 -1.113281 1.6875 -0.625 L 1.765625 -0.9375 L 2.71875 -4.5625 L 3.53125 -4.5625 L 4.328125 -1.4375 L 4.515625 -0.625 L 4.65625 -1.21875 L 5.515625 -4.5625 L 6.265625 -4.5625 Z M 4.953125 0 "/>
</symbol>
<symbol overflow="visible" id="glyph0-13">
<path style="stroke:none;" d="M 4.4375 -2.28125 C 4.4375 -1.488281 4.257812 -0.894531 3.90625 -0.5 C 3.5625 -0.113281 3.054688 0.078125 2.390625 0.078125 C 1.722656 0.078125 1.21875 -0.125 0.875 -0.53125 C 0.53125 -0.9375 0.359375 -1.519531 0.359375 -2.28125 C 0.359375 -3.863281 1.039062 -4.65625 2.40625 -4.65625 C 3.101562 -4.65625 3.613281 -4.460938 3.9375 -4.078125 C 4.269531 -3.691406 4.4375 -3.09375 4.4375 -2.28125 Z M 3.640625 -2.28125 C 3.640625 -2.914062 3.546875 -3.375 3.359375 -3.65625 C 3.171875 -3.945312 2.859375 -4.09375 2.421875 -4.09375 C 1.972656 -4.09375 1.648438 -3.945312 1.453125 -3.65625 C 1.253906 -3.363281 1.15625 -2.90625 1.15625 -2.28125 C 1.15625 -1.6875 1.253906 -1.238281 1.453125 -0.9375 C 1.648438 -0.632812 1.957031 -0.484375 2.375 -0.484375 C 2.832031 -0.484375 3.15625 -0.628906 3.34375 -0.921875 C 3.539062 -1.210938 3.640625 -1.664062 3.640625 -2.28125 Z M 3.640625 -2.28125 "/>
</symbol>
<symbol overflow="visible" id="glyph0-14">
<path style="stroke:none;" d="M 0.703125 0 L 0.703125 -5.9375 L 5.21875 -5.9375 L 5.21875 -5.28125 L 1.515625 -5.28125 L 1.515625 -3.375 L 4.96875 -3.375 L 4.96875 -2.734375 L 1.515625 -2.734375 L 1.515625 -0.65625 L 5.390625 -0.65625 L 5.390625 0 Z M 0.703125 0 "/>
</symbol>
<symbol overflow="visible" id="glyph0-15">
<path style="stroke:none;" d="M 1.15625 -2.296875 C 1.15625 -1.691406 1.25 -1.242188 1.4375 -0.953125 C 1.632812 -0.660156 1.925781 -0.515625 2.3125 -0.515625 C 2.582031 -0.515625 2.804688 -0.585938 2.984375 -0.734375 C 3.171875 -0.878906 3.285156 -1.101562 3.328125 -1.40625 L 4.09375 -1.359375 C 4.03125 -0.921875 3.84375 -0.570312 3.53125 -0.3125 C 3.21875 -0.0507812 2.816406 0.078125 2.328125 0.078125 C 1.691406 0.078125 1.203125 -0.117188 0.859375 -0.515625 C 0.523438 -0.921875 0.359375 -1.507812 0.359375 -2.28125 C 0.359375 -3.050781 0.523438 -3.640625 0.859375 -4.046875 C 1.203125 -4.453125 1.691406 -4.65625 2.328125 -4.65625 C 2.796875 -4.65625 3.179688 -4.53125 3.484375 -4.28125 C 3.796875 -4.039062 3.988281 -3.707031 4.0625 -3.28125 L 3.28125 -3.234375 C 3.25 -3.484375 3.148438 -3.679688 2.984375 -3.828125 C 2.828125 -3.972656 2.597656 -4.046875 2.296875 -4.046875 C 1.898438 -4.046875 1.609375 -3.910156 1.421875 -3.640625 C 1.242188 -3.378906 1.15625 -2.929688 1.15625 -2.296875 Z M 1.15625 -2.296875 "/>
</symbol>
<symbol overflow="visible" id="glyph0-16">
<path style="stroke:none;" d="M 1.171875 -2.125 C 1.171875 -1.601562 1.273438 -1.195312 1.484375 -0.90625 C 1.703125 -0.625 2.019531 -0.484375 2.4375 -0.484375 C 2.769531 -0.484375 3.035156 -0.546875 3.234375 -0.671875 C 3.429688 -0.804688 3.5625 -0.976562 3.625 -1.1875 L 4.296875 -1 C 4.023438 -0.28125 3.40625 0.078125 2.4375 0.078125 C 1.757812 0.078125 1.242188 -0.117188 0.890625 -0.515625 C 0.535156 -0.921875 0.359375 -1.519531 0.359375 -2.3125 C 0.359375 -3.0625 0.535156 -3.640625 0.890625 -4.046875 C 1.242188 -4.453125 1.75 -4.65625 2.40625 -4.65625 C 3.75 -4.65625 4.421875 -3.84375 4.421875 -2.21875 L 4.421875 -2.125 Z M 3.640625 -2.703125 C 3.597656 -3.179688 3.472656 -3.53125 3.265625 -3.75 C 3.066406 -3.976562 2.773438 -4.09375 2.390625 -4.09375 C 2.023438 -4.09375 1.734375 -3.96875 1.515625 -3.71875 C 1.304688 -3.46875 1.191406 -3.128906 1.171875 -2.703125 Z M 3.640625 -2.703125 "/>
</symbol>
<symbol overflow="visible" id="glyph0-17">
<path style="stroke:none;" d="M 3.78125 -3.734375 L 3.453125 -2.171875 L 4.546875 -2.171875 L 4.546875 -1.71875 L 3.359375 -1.71875 L 2.984375 0 L 2.515625 0 L 2.875 -1.71875 L 1.34375 -1.71875 L 1 0 L 0.53125 0 L 0.890625 -1.71875 L 0.03125 -1.71875 L 0.03125 -2.171875 L 0.984375 -2.171875 L 1.3125 -3.734375 L 0.25 -3.734375 L 0.25 -4.1875 L 1.40625 -4.1875 L 1.78125 -5.90625 L 2.25 -5.90625 L 1.875 -4.1875 L 3.40625 -4.1875 L 3.78125 -5.90625 L 4.25 -5.90625 L 3.875 -4.1875 L 4.765625 -4.1875 L 4.765625 -3.734375 Z M 1.796875 -3.734375 L 1.453125 -2.171875 L 2.984375 -2.171875 L 3.3125 -3.734375 Z M 1.796875 -3.734375 "/>
</symbol>
<symbol overflow="visible" id="glyph0-18">
<path style="stroke:none;" d="M 2.828125 -2.5625 L 2.828125 -0.765625 L 2.203125 -0.765625 L 2.203125 -2.5625 L 0.421875 -2.5625 L 0.421875 -3.1875 L 2.203125 -3.1875 L 2.203125 -4.984375 L 2.828125 -4.984375 L 2.828125 -3.1875 L 4.625 -3.1875 L 4.625 -2.5625 Z M 2.828125 -2.5625 "/>
</symbol>
<symbol overflow="visible" id="glyph0-19">
<path style="stroke:none;" d="M 0.78125 -3.6875 L 0.78125 -4.5625 L 1.609375 -4.5625 L 1.609375 -3.6875 Z M 0.78125 0 L 0.78125 -0.875 L 1.609375 -0.875 L 1.609375 0 Z M 0.78125 0 "/>
</symbol>
<symbol overflow="visible" id="glyph0-20">
<path style="stroke:none;" d=""/>
</symbol>
<symbol overflow="visible" id="glyph0-21">
<path style="stroke:none;" d="M 0.609375 1.796875 L 0.609375 -6.265625 L 2.328125 -6.265625 L 2.328125 -5.71875 L 1.34375 -5.71875 L 1.34375 1.25 L 2.328125 1.25 L 2.328125 1.796875 Z M 0.609375 1.796875 "/>
</symbol>
<symbol overflow="visible" id="glyph0-22">
<path style="stroke:none;" d="M 0 0.078125 L 1.734375 -6.265625 L 2.40625 -6.265625 L 0.6875 0.078125 Z M 0 0.078125 "/>
</symbol>
<symbol overflow="visible" id="glyph0-23">
<path style="stroke:none;" d="M 0.78125 0 L 0.78125 -0.921875 L 1.609375 -0.921875 L 1.609375 0 Z M 0.78125 0 "/>
</symbol>
<symbol overflow="visible" id="glyph0-24">
<path style="stroke:none;" d="M 0.0625 1.796875 L 0.0625 1.25 L 1.046875 1.25 L 1.046875 -5.71875 L 0.0625 -5.71875 L 0.0625 -6.265625 L 1.78125 -6.265625 L 1.78125 1.796875 Z M 0.0625 1.796875 "/>
</symbol>
</g>
<clipPath id="clip1">
  <path d="M 0 0 L 595.921875 0 L 595.921875 421 L 0 421 Z M 0 0 "/>
</clipPath>
</defs>
<g id="surface1">
<g clip-path="url(#clip1)" clip-rule="nonzero">
<path style=" stroke:none;fill-rule:nonzero;fill:rgb(100%,100%,100%);fill-opacity:1;" d="M 0 0 L 596.25 0 L 596.25 420.542969 L 0 420.542969 Z M 0 0 "/>
</g>
<path style="fill-rule:nonzero;fill:rgb(100%,100%,100%);fill-opacity:1;stroke-width:1;stroke-linecap:butt;stroke-linejoin:miter;stroke:rgb(0%,0%,0%);stroke-opacity:1;stroke-miterlimit:4;" d="M 80.000001 80.000001 L 200.001417 80.000001 L 200.001417 140.000709 L 80.000001 140.000709 Z M 80.000001 80.000001 " transform="matrix(0.720109,0,0,0.720109,0.360054,0.360054)"/>
<g style="fill:rgb(0%,0%,0%);fill-opacity:1;">
  <use xlink:href="#glyph0-1" x="85.197859" y="82.092391"/>
  <use xlink:href="#glyph0-2" x="90.003741" y="82.092391"/>
  <use xlink:href="#glyph0-3" x="91.923562" y="82.092391"/>
  <use xlink:href="#glyph0-4" x="96.729444" y="82.092391"/>
  <use xlink:href="#glyph0-5" x="101.535325" y="82.092391"/>
  <use xlink:href="#glyph0-3" x="104.412947" y="82.092391"/>
  <use xlink:href="#glyph0-6" x="109.218829" y="82.092391"/>
</g>
<path style="fill:none;stroke-width:1;stroke-linecap:butt;stroke-linejoin:miter;stroke:rgb(0%,0%,0%);stroke-opacity:1;stroke-miterlimit:10;" d="M 260.002125 350.000474 L 260.002125 383.63255 " transform="matrix(0.720109,0,0,0.720109,0.360054,0.360054)"/>
<path style="fill-rule:nonzero;fill:rgb(0%,0%,0%);fill-opacity:1;stroke-width:1;stroke-linecap:butt;stroke-linejoin:miter;stroke:rgb(0%,0%,0%);stroke-opacity:1;stroke-miterlimit:10;" d="M 260.002125 388.878069 L 256.497879 381.880428 L 260.002125 383.63255 L 263.500945 381.880428 Z M 260.002125 388.878069 " transform="matrix(0.720109,0,0,0.720109,0.360054,0.360054)"/>
<path style="fill-rule:nonzero;fill:rgb(100%,100%,100%);fill-opacity:1;stroke-width:1;stroke-linecap:butt;stroke-linejoin:miter;stroke:rgb(0%,0%,0%);stroke-opacity:1;stroke-miterlimit:4;" d="M 319.997408 310.000002 C 319.997408 311.312738 319.905191 312.614625 319.709908 313.921936 C 319.52005 315.223823 319.23255 316.520286 318.847408 317.805899 C 318.462267 319.086087 317.984908 320.355427 317.415333 321.613918 C 316.845757 322.866984 316.183965 324.098352 315.43538 325.308021 C 314.68137 326.517691 313.840569 327.700238 312.912974 328.855663 C 311.990804 330.011088 310.981842 331.133965 309.886087 332.224295 C 308.795757 333.314625 307.629484 334.361559 306.381842 335.375946 C 305.134201 336.390333 303.81604 337.355899 302.427361 338.283493 C 301.038682 339.211088 299.584908 340.089861 298.06604 340.919814 C 296.547172 341.749767 294.968634 342.530899 293.335851 343.257786 C 291.697644 343.984673 290.01604 344.657314 288.285615 345.27571 C 286.549766 345.894106 284.775946 346.452833 282.958729 346.957314 C 281.146936 347.456371 279.297172 347.895757 277.414861 348.275474 C 275.537974 348.660616 273.633964 348.975239 271.702832 349.230191 C 269.777125 349.485144 267.835144 349.680427 265.882313 349.805191 C 263.924059 349.93538 261.965804 350.000474 260.002125 350.000474 C 258.033021 350.000474 256.074766 349.93538 254.116511 349.805191 C 252.163681 349.680427 250.2217 349.485144 248.295993 349.230191 C 246.36486 348.975239 244.460851 348.655191 242.583964 348.275474 C 240.701653 347.895757 238.851889 347.456371 237.040096 346.957314 C 235.222879 346.452833 233.449058 345.894106 231.718634 345.27571 C 229.982785 344.657314 228.301181 343.984673 226.668398 343.257786 C 225.03019 342.530899 223.457077 341.749767 221.938209 340.919814 C 220.419341 340.089861 218.965568 339.211088 217.571464 338.283493 C 216.182785 337.355899 214.864624 336.390333 213.616983 335.375946 C 212.374766 334.361559 211.203068 333.314625 210.112738 332.224295 C 209.022407 331.133965 208.013445 330.011088 207.085851 328.855663 C 206.158256 327.700238 205.317454 326.517691 204.56887 325.308021 C 203.81486 324.098352 203.153068 322.866984 202.583492 321.613918 C 202.013917 320.355427 201.536558 319.086087 201.151417 317.805899 C 200.7717 316.520286 200.4842 315.223823 200.288917 313.921936 C 200.093634 312.614625 200.001417 311.312738 200.001417 310.000002 C 200.001417 308.687267 200.093634 307.38538 200.288917 306.078068 C 200.4842 304.776182 200.7717 303.479719 201.151417 302.194106 C 201.536558 300.913917 202.013917 299.644578 202.583492 298.386087 C 203.153068 297.133021 203.81486 295.901653 204.56887 294.691983 C 205.317454 293.482314 206.158256 292.299766 207.085851 291.144342 C 208.013445 289.988917 209.022407 288.86604 210.112738 287.77571 C 211.203068 286.68538 212.374766 285.638446 213.616983 284.624059 C 214.864624 283.609672 216.182785 282.644106 217.571464 281.716512 C 218.965568 280.788917 220.419341 279.910144 221.938209 279.080191 C 223.457077 278.250238 225.03019 277.469106 226.668398 276.742219 C 228.301181 276.015332 229.982785 275.342691 231.718634 274.724295 C 233.449058 274.105898 235.222879 273.547172 237.040096 273.042691 C 238.851889 272.543634 240.701653 272.104247 242.583964 271.72453 C 244.460851 271.339389 246.36486 271.024766 248.295993 270.769813 C 250.2217 270.514861 252.163681 270.319578 254.116511 270.194813 C 256.074766 270.064625 258.033021 269.99953 260.002125 269.99953 C 261.965804 269.99953 263.924059 270.064625 265.882313 270.194813 C 267.835144 270.319578 269.777125 270.514861 271.702832 270.769813 C 273.633964 271.024766 275.537974 271.344813 277.414861 271.72453 C 279.297172 272.104247 281.146936 272.543634 282.958729 273.042691 C 284.775946 273.547172 286.549766 274.105898 288.285615 274.724295 C 290.01604 275.342691 291.697644 276.015332 293.335851 276.742219 C 294.968634 277.469106 296.547172 278.250238 298.06604 279.080191 C 299.584908 279.910144 301.038682 280.788917 302.427361 281.716512 C 303.81604 282.644106 305.134201 283.609672 306.381842 284.624059 C 307.629484 285.638446 308.795757 286.68538 309.886087 287.77571 C 310.981842 288.86604 311.990804 289.988917 312.912974 291.144342 C 313.840569 292.299766 314.68137 293.482314 315.43538 294.691983 C 316.183965 295.901653 316.845757 297.133021 317.415333 298.386087 C 317.984908 299.644578 318.462267 300.913917 318.847408 302.194106 C 319.23255 303.479719 319.52005 304.776182 319.709908 306.078068 C 319.905191 307.38538 319.997408 308.687267 319.997408 310.000002 Z M 319.997408 310.000002 " transform="matrix(0.720109,0,0,0.720109,0.360054,0.360054)"/>
<g style="fill:rgb(0%,0%,0%);fill-opacity:1;">
  <use xlink:href="#glyph0-7" x="172.094729" y="226.114129"/>
  <use xlink:href="#glyph0-1" x="176.90061" y="226.114129"/>
  <use xlink:href="#glyph0-8" x="181.706492" y="226.114129"/>
  <use xlink:href="#glyph0-9" x="184.107323" y="226.114129"/>
  <use xlink:href="#glyph0-10" x="188.913205" y="226.114129"/>
  <use xlink:href="#glyph0-11" x="193.233857" y="226.114129"/>
  <use xlink:href="#glyph0-4" x="197.554509" y="226.114129"/>
</g>
<path style="fill:none;stroke-width:1;stroke-linecap:butt;stroke-linejoin:miter;stroke:rgb(0%,0%,0%);stroke-opacity:1;stroke-miterlimit:10;" d="M 260.002125 249.999294 L 260.002125 263.631134 " transform="matrix(0.720109,0,0,0.720109,0.360054,0.360054)"/>
<path style="fill-rule:nonzero;fill:rgb(0%,0%,0%);fill-opacity:1;stroke-width:1;stroke-linecap:butt;stroke-linejoin:miter;stroke:rgb(0%,0%,0%);stroke-opacity:1;stroke-miterlimit:10;" d="M 260.002125 268.882078 L 256.497879 261.879011 L 260.002125 263.631134 L 263.500945 261.879011 Z M 260.002125 268.882078 " transform="matrix(0.720109,0,0,0.720109,0.360054,0.360054)"/>
<path style="fill-rule:nonzero;fill:rgb(100%,100%,100%);fill-opacity:1;stroke-width:1;stroke-linecap:butt;stroke-linejoin:miter;stroke:rgb(0%,0%,0%);stroke-opacity:1;stroke-miterlimit:4;" d="M 200.001417 189.998586 L 319.997408 189.998586 L 319.997408 249.999294 L 200.001417 249.999294 Z M 200.001417 189.998586 " transform="matrix(0.720109,0,0,0.720109,0.360054,0.360054)"/>
<g style="fill:rgb(0%,0%,0%);fill-opacity:1;">
  <use xlink:href="#glyph0-1" x="165.602495" y="161.304347"/>
  <use xlink:href="#glyph0-2" x="170.408377" y="161.304347"/>
  <use xlink:href="#glyph0-3" x="172.328198" y="161.304347"/>
  <use xlink:href="#glyph0-4" x="177.13408" y="161.304347"/>
  <use xlink:href="#glyph0-5" x="181.939961" y="161.304347"/>
  <use xlink:href="#glyph0-3" x="184.817583" y="161.304347"/>
  <use xlink:href="#glyph0-6" x="189.623465" y="161.304347"/>
  <use xlink:href="#glyph0-7" x="196.821738" y="161.304347"/>
  <use xlink:href="#glyph0-1" x="201.62762" y="161.304347"/>
  <use xlink:href="#glyph0-8" x="206.433502" y="161.304347"/>
</g>
<path style="fill:none;stroke-width:1;stroke-linecap:butt;stroke-linejoin:miter;stroke:rgb(0%,0%,0%);stroke-opacity:1;stroke-miterlimit:10;" d="M 373.998588 149.998114 L 373.998588 169.99835 L 260.002125 169.99835 L 260.002125 183.63019 " transform="matrix(0.720109,0,0,0.720109,0.360054,0.360054)"/>
<path style="fill-rule:nonzero;fill:rgb(0%,0%,0%);fill-opacity:1;stroke-width:1;stroke-linecap:butt;stroke-linejoin:miter;stroke:rgb(0%,0%,0%);stroke-opacity:1;stroke-miterlimit:10;" d="M 260.002125 188.881134 L 256.497879 181.878067 L 260.002125 183.63019 L 263.500945 181.878067 Z M 260.002125 188.881134 " transform="matrix(0.720109,0,0,0.720109,0.360054,0.360054)"/>
<path style="fill-rule:nonzero;fill:rgb(100%,100%,100%);fill-opacity:1;stroke-width:1;stroke-linecap:butt;stroke-linejoin:miter;stroke:rgb(0%,0%,0%);stroke-opacity:1;stroke-miterlimit:4;" d="M 433.999296 109.997642 C 433.999296 111.310378 433.901654 112.61769 433.711796 113.919576 C 433.516513 115.226888 433.229013 116.517925 432.849296 117.803539 C 432.464154 119.089152 431.986796 120.358492 431.41722 121.611558 C 430.847645 122.864624 430.185852 124.095992 429.431843 125.305661 C 428.683258 126.515331 427.842456 127.697878 426.914862 128.853303 C 425.987268 130.008727 424.978305 131.131605 423.887975 132.221935 C 422.797645 133.312265 421.625947 134.364624 420.378305 135.373586 C 419.136088 136.387973 417.817928 137.358963 416.423824 138.286558 C 415.035145 139.208728 413.581371 140.087501 412.062503 140.922878 C 410.543635 141.752831 408.970522 142.528539 407.332315 143.26085 C 405.699531 143.987737 404.017928 144.660378 402.282079 145.278775 C 400.551654 145.891746 398.777833 146.455897 396.960616 146.954954 C 395.143399 147.454011 393.29906 147.898822 391.416748 148.278539 C 389.534437 148.658256 387.630428 148.978303 385.70472 149.233256 C 383.779012 149.488209 381.837031 149.678067 379.878777 149.808256 C 377.925946 149.938445 375.967692 149.998114 373.998588 149.998114 C 372.034909 149.998114 370.076654 149.938445 368.118399 149.808256 C 366.165569 149.678067 364.223588 149.488209 362.292456 149.233256 C 360.366748 148.978303 358.462739 148.658256 356.580427 148.278539 C 354.703541 147.898822 352.853776 147.454011 351.036559 146.954954 C 349.224767 146.455897 347.450946 145.891746 345.715097 145.278775 C 343.984673 144.660378 342.297644 143.987737 340.664861 143.26085 C 339.032078 142.528539 337.45354 141.752831 335.934672 140.922878 C 334.415805 140.087501 332.962031 139.208728 331.573352 138.286558 C 330.184672 137.358963 328.866512 136.387973 327.618871 135.373586 C 326.371229 134.364624 325.204955 133.312265 324.109201 132.221935 C 323.01887 131.131605 322.009908 130.008727 321.082314 128.853303 C 320.160144 127.697878 319.319342 126.515331 318.565333 125.305661 C 317.816748 124.095992 317.154955 122.864624 316.58538 121.611558 C 316.015804 120.358492 315.538446 119.089152 315.153304 117.803539 C 314.768163 116.517925 314.480663 115.226888 314.290804 113.919576 C 314.095521 112.61769 313.99788 111.310378 313.99788 109.997642 C 313.99788 108.690331 314.095521 107.38302 314.290804 106.081133 C 314.480663 104.773822 314.768163 103.482784 315.153304 102.197171 C 315.538446 100.911557 316.015804 99.642218 316.58538 98.389152 C 317.154955 97.136086 317.816748 95.904718 318.565333 94.695048 C 319.319342 93.479954 320.160144 92.297406 321.082314 91.141982 C 322.009908 89.986557 323.01887 88.869104 324.109201 87.778774 C 325.204955 86.688444 326.371229 85.636086 327.618871 84.621699 C 328.866512 83.612737 330.184672 82.641746 331.573352 81.714152 C 332.962031 80.791982 334.415805 79.913208 335.934672 79.077831 C 337.45354 78.247878 339.032078 77.466746 340.664861 76.739859 C 342.297644 76.012972 343.984673 75.340331 345.715097 74.721935 C 347.450946 74.103538 349.224767 73.544812 351.036559 73.045755 C 352.853776 72.541274 354.703541 72.101887 356.580427 71.72217 C 358.462739 71.342453 360.366748 71.022406 362.292456 70.767453 C 364.223588 70.512501 366.165569 70.322642 368.118399 70.192453 C 370.076654 70.062265 372.034909 70.002595 373.998588 70.002595 C 375.967692 70.002595 377.925946 70.062265 379.878777 70.192453 C 381.837031 70.322642 383.779012 70.512501 385.70472 70.767453 C 387.630428 71.022406 389.534437 71.342453 391.416748 71.72217 C 393.29906 72.101887 395.143399 72.541274 396.960616 73.045755 C 398.777833 73.544812 400.551654 74.103538 402.282079 74.721935 C 404.017928 75.340331 405.699531 76.012972 407.332315 76.739859 C 408.970522 77.466746 410.543635 78.247878 412.062503 79.077831 C 413.581371 79.913208 415.035145 80.791982 416.423824 81.714152 C 417.817928 82.641746 419.136088 83.612737 420.378305 84.621699 C 421.625947 85.636086 422.797645 86.688444 423.887975 87.778774 C 424.978305 88.869104 425.987268 89.986557 426.914862 91.141982 C 427.842456 92.297406 428.683258 93.479954 429.431843 94.695048 C 430.185852 95.904718 430.847645 97.136086 431.41722 98.389152 C 431.986796 99.642218 432.464154 100.911557 432.849296 102.197171 C 433.229013 103.482784 433.516513 104.773822 433.711796 106.081133 C 433.901654 107.38302 433.999296 108.690331 433.999296 109.997642 Z M 433.999296 109.997642 " transform="matrix(0.720109,0,0,0.720109,0.360054,0.360054)"/>
<g style="fill:rgb(0%,0%,0%);fill-opacity:1;">
  <use xlink:href="#glyph0-1" x="256.583728" y="82.092391"/>
  <use xlink:href="#glyph0-5" x="261.389609" y="82.092391"/>
  <use xlink:href="#glyph0-3" x="264.267231" y="82.092391"/>
  <use xlink:href="#glyph0-12" x="269.073113" y="82.092391"/>
  <use xlink:href="#glyph0-2" x="275.313586" y="82.092391"/>
  <use xlink:href="#glyph0-13" x="277.233407" y="82.092391"/>
</g>
<path style="fill-rule:nonzero;fill:rgb(100%,100%,100%);fill-opacity:1;stroke-width:1;stroke-linecap:butt;stroke-linejoin:miter;stroke:rgb(0%,0%,0%);stroke-opacity:1;stroke-miterlimit:4;" d="M 200.001417 390.000946 L 319.997408 390.000946 L 319.997408 450.001654 L 200.001417 450.001654 Z M 200.001417 390.000946 " transform="matrix(0.720109,0,0,0.720109,0.360054,0.360054)"/>
<g style="fill:rgb(0%,0%,0%);fill-opacity:1;">
  <use xlink:href="#glyph0-1" x="164.893642" y="305.326085"/>
  <use xlink:href="#glyph0-2" x="169.699524" y="305.326085"/>
  <use xlink:href="#glyph0-3" x="171.619345" y="305.326085"/>
  <use xlink:href="#glyph0-4" x="176.425226" y="305.326085"/>
  <use xlink:href="#glyph0-5" x="181.231108" y="305.326085"/>
  <use xlink:href="#glyph0-3" x="184.10873" y="305.326085"/>
  <use xlink:href="#glyph0-6" x="188.914611" y="305.326085"/>
  <use xlink:href="#glyph0-10" x="196.112885" y="305.326085"/>
  <use xlink:href="#glyph0-11" x="200.433537" y="305.326085"/>
  <use xlink:href="#glyph0-4" x="204.754189" y="305.326085"/>
</g>
<path style="fill-rule:nonzero;fill:rgb(100%,100%,100%);fill-opacity:1;stroke-width:1;stroke-linecap:butt;stroke-linejoin:miter;stroke:rgb(0%,0%,0%);stroke-opacity:1;stroke-miterlimit:4;" d="M 479.999296 209.998822 L 700.001892 209.998822 L 700.001892 379.998116 L 479.999296 379.998116 Z M 479.999296 209.998822 " transform="matrix(0.720109,0,0,0.720109,0.360054,0.360054)"/>
<g style="fill:rgb(0%,0%,0%);fill-opacity:1;">
  <use xlink:href="#glyph0-14" x="411.654633" y="184.347825"/>
  <use xlink:href="#glyph0-6" x="417.418316" y="184.347825"/>
  <use xlink:href="#glyph0-3" x="424.61659" y="184.347825"/>
  <use xlink:href="#glyph0-15" x="429.422471" y="184.347825"/>
  <use xlink:href="#glyph0-10" x="433.743123" y="184.347825"/>
</g>
<g style="fill:rgb(0%,0%,0%);fill-opacity:1;">
  <use xlink:href="#glyph0-13" x="407.806553" y="205.230977"/>
  <use xlink:href="#glyph0-5" x="412.612434" y="205.230977"/>
  <use xlink:href="#glyph0-4" x="415.490056" y="205.230977"/>
  <use xlink:href="#glyph0-6" x="420.295938" y="205.230977"/>
  <use xlink:href="#glyph0-13" x="427.494211" y="205.230977"/>
  <use xlink:href="#glyph0-1" x="432.300093" y="205.230977"/>
  <use xlink:href="#glyph0-16" x="437.105975" y="205.230977"/>
</g>
<g style="fill:rgb(0%,0%,0%);fill-opacity:1;">
  <use xlink:href="#glyph0-17" x="392.312968" y="236.19565"/>
  <use xlink:href="#glyph0-18" x="397.118849" y="236.19565"/>
  <use xlink:href="#glyph0-1" x="402.165236" y="236.19565"/>
  <use xlink:href="#glyph0-5" x="406.971117" y="236.19565"/>
  <use xlink:href="#glyph0-3" x="409.848739" y="236.19565"/>
  <use xlink:href="#glyph0-2" x="414.654621" y="236.19565"/>
  <use xlink:href="#glyph0-13" x="416.574442" y="236.19565"/>
  <use xlink:href="#glyph0-19" x="421.380324" y="236.19565"/>
  <use xlink:href="#glyph0-20" x="423.781155" y="236.19565"/>
  <use xlink:href="#glyph0-1" x="426.181986" y="236.19565"/>
  <use xlink:href="#glyph0-2" x="430.987867" y="236.19565"/>
  <use xlink:href="#glyph0-3" x="432.907688" y="236.19565"/>
  <use xlink:href="#glyph0-4" x="437.71357" y="236.19565"/>
  <use xlink:href="#glyph0-5" x="442.519452" y="236.19565"/>
  <use xlink:href="#glyph0-3" x="445.397073" y="236.19565"/>
  <use xlink:href="#glyph0-6" x="450.202955" y="236.19565"/>
</g>
<g style="fill:rgb(0%,0%,0%);fill-opacity:1;">
  <use xlink:href="#glyph0-21" x="380.194885" y="246.277172"/>
  <use xlink:href="#glyph0-21" x="382.595716" y="246.277172"/>
  <use xlink:href="#glyph0-22" x="384.996547" y="246.277172"/>
  <use xlink:href="#glyph0-2" x="387.397378" y="246.277172"/>
  <use xlink:href="#glyph0-6" x="389.317199" y="246.277172"/>
  <use xlink:href="#glyph0-3" x="396.515473" y="246.277172"/>
  <use xlink:href="#glyph0-4" x="401.321355" y="246.277172"/>
  <use xlink:href="#glyph0-16" x="406.127236" y="246.277172"/>
  <use xlink:href="#glyph0-10" x="410.933118" y="246.277172"/>
  <use xlink:href="#glyph0-22" x="415.25377" y="246.277172"/>
  <use xlink:href="#glyph0-1" x="417.654601" y="246.277172"/>
  <use xlink:href="#glyph0-2" x="422.460483" y="246.277172"/>
  <use xlink:href="#glyph0-3" x="424.380304" y="246.277172"/>
  <use xlink:href="#glyph0-4" x="429.186185" y="246.277172"/>
  <use xlink:href="#glyph0-5" x="433.992067" y="246.277172"/>
  <use xlink:href="#glyph0-3" x="436.869689" y="246.277172"/>
  <use xlink:href="#glyph0-6" x="441.675571" y="246.277172"/>
  <use xlink:href="#glyph0-23" x="448.873844" y="246.277172"/>
  <use xlink:href="#glyph0-10" x="451.274676" y="246.277172"/>
  <use xlink:href="#glyph0-11" x="455.595328" y="246.277172"/>
  <use xlink:href="#glyph0-4" x="459.91598" y="246.277172"/>
  <use xlink:href="#glyph0-24" x="464.721861" y="246.277172"/>
  <use xlink:href="#glyph0-24" x="467.122693" y="246.277172"/>
</g>
<path style="fill:none;stroke-width:1;stroke-linecap:butt;stroke-linejoin:miter;stroke:rgb(0%,0%,0%);stroke-opacity:1;stroke-miterlimit:10;" d="M 200.001417 109.997642 L 307.629484 109.997642 " transform="matrix(0.720109,0,0,0.720109,0.360054,0.360054)"/>
<path style="fill-rule:nonzero;fill:rgb(0%,0%,0%);fill-opacity:1;stroke-width:1;stroke-linecap:butt;stroke-linejoin:miter;stroke:rgb(0%,0%,0%);stroke-opacity:1;stroke-miterlimit:10;" d="M 312.880427 109.997642 L 305.877361 113.501888 L 307.629484 109.997642 L 305.877361 106.498822 Z M 312.880427 109.997642 " transform="matrix(0.720109,0,0,0.720109,0.360054,0.360054)"/>
<path style="fill:none;stroke-width:1;stroke-linecap:butt;stroke-linejoin:miter;stroke:rgb(0%,0%,0%);stroke-opacity:1;stroke-miterlimit:10;" d="M 319.997408 419.998588 L 399.998352 419.998588 L 399.998352 301.998823 L 473.6309 301.998823 " transform="matrix(0.720109,0,0,0.720109,0.360054,0.360054)"/>
<path style="fill-rule:nonzero;fill:rgb(0%,0%,0%);fill-opacity:1;stroke-width:1;stroke-linecap:butt;stroke-linejoin:miter;stroke:rgb(0%,0%,0%);stroke-opacity:1;stroke-miterlimit:10;" d="M 478.881843 301.998823 L 471.878777 305.497644 L 473.6309 301.998823 L 471.878777 298.500002 Z M 478.881843 301.998823 " transform="matrix(0.720109,0,0,0.720109,0.360054,0.360054)"/>
</g>
</svg>
