<mxfile host="Electron" agent="Mozilla/5.0 (X11; Linux x86_64) AppleWebKit/537.36 (KHTML, like Gecko) draw.io/24.1.0 Chrome/120.0.6099.109 Electron/28.1.0 Safari/537.36" modified="2024-04-04T08:00:21.670Z" version="24.1.0" etag="KIShlBM63b7CeyGnO0sO" type="device">
  <diagram name="第 1 页" id="0">
    <mxGraphModel dx="794" dy="1203" grid="1" gridSize="10" guides="1" tooltips="1" connect="1" arrows="1" fold="1" page="1" pageScale="1" pageWidth="827" pageHeight="583" math="0" shadow="0">
      <root>
        <mxCell id="0" />
        <mxCell id="1" parent="0" />
        <mxCell id="x0GDKighpi3gE4glOrAO-1" value="diagram" style="rounded=0;whiteSpace=wrap;html=1;" vertex="1" parent="1">
          <mxGeometry x="80" y="80" width="120" height="60" as="geometry" />
        </mxCell>
        <mxCell id="x0GDKighpi3gE4glOrAO-11" style="edgeStyle=orthogonalEdgeStyle;rounded=0;orthogonalLoop=1;jettySize=auto;html=1;exitX=0.5;exitY=1;exitDx=0;exitDy=0;entryX=0.5;entryY=0;entryDx=0;entryDy=0;" edge="1" parent="1" source="x0GDKighpi3gE4glOrAO-2" target="x0GDKighpi3gE4glOrAO-5">
          <mxGeometry relative="1" as="geometry" />
        </mxCell>
        <mxCell id="x0GDKighpi3gE4glOrAO-2" value="pdf2svg" style="ellipse;whiteSpace=wrap;html=1;" vertex="1" parent="1">
          <mxGeometry x="200" y="270" width="120" height="80" as="geometry" />
        </mxCell>
        <mxCell id="x0GDKighpi3gE4glOrAO-10" style="edgeStyle=orthogonalEdgeStyle;rounded=0;orthogonalLoop=1;jettySize=auto;html=1;exitX=0.5;exitY=1;exitDx=0;exitDy=0;entryX=0.5;entryY=0;entryDx=0;entryDy=0;" edge="1" parent="1" source="x0GDKighpi3gE4glOrAO-3" target="x0GDKighpi3gE4glOrAO-2">
          <mxGeometry relative="1" as="geometry" />
        </mxCell>
        <mxCell id="x0GDKighpi3gE4glOrAO-3" value="diagrampdf" style="rounded=0;whiteSpace=wrap;html=1;" vertex="1" parent="1">
          <mxGeometry x="200" y="190" width="120" height="60" as="geometry" />
        </mxCell>
        <mxCell id="x0GDKighpi3gE4glOrAO-9" style="edgeStyle=orthogonalEdgeStyle;rounded=0;orthogonalLoop=1;jettySize=auto;html=1;exitX=0.5;exitY=1;exitDx=0;exitDy=0;entryX=0.5;entryY=0;entryDx=0;entryDy=0;" edge="1" parent="1" source="x0GDKighpi3gE4glOrAO-4" target="x0GDKighpi3gE4glOrAO-3">
          <mxGeometry relative="1" as="geometry" />
        </mxCell>
        <mxCell id="x0GDKighpi3gE4glOrAO-4" value="drawio" style="ellipse;whiteSpace=wrap;html=1;" vertex="1" parent="1">
          <mxGeometry x="314" y="70" width="120" height="80" as="geometry" />
        </mxCell>
        <mxCell id="x0GDKighpi3gE4glOrAO-5" value="diagramsvg" style="rounded=0;whiteSpace=wrap;html=1;" vertex="1" parent="1">
          <mxGeometry x="200" y="390" width="120" height="60" as="geometry" />
        </mxCell>
        <mxCell id="x0GDKighpi3gE4glOrAO-6" value="Emacs&lt;div&gt;&lt;br&gt;&lt;/div&gt;&lt;div&gt;orgmode&lt;/div&gt;&lt;div&gt;&lt;br&gt;&lt;/div&gt;&lt;div&gt;&lt;br&gt;&lt;/div&gt;&lt;div&gt;#+draio: diagram&lt;/div&gt;&lt;div&gt;[[/images/diagram.svg]]&lt;/div&gt;" style="rounded=0;whiteSpace=wrap;html=1;" vertex="1" parent="1">
          <mxGeometry x="480" y="210" width="220" height="170" as="geometry" />
        </mxCell>
        <mxCell id="x0GDKighpi3gE4glOrAO-7" value="" style="endArrow=classic;html=1;rounded=0;entryX=0;entryY=0.5;entryDx=0;entryDy=0;" edge="1" parent="1" source="x0GDKighpi3gE4glOrAO-1" target="x0GDKighpi3gE4glOrAO-4">
          <mxGeometry width="50" height="50" relative="1" as="geometry">
            <mxPoint x="260" y="150" as="sourcePoint" />
            <mxPoint x="310" y="100" as="targetPoint" />
          </mxGeometry>
        </mxCell>
        <mxCell id="x0GDKighpi3gE4glOrAO-12" style="edgeStyle=orthogonalEdgeStyle;rounded=0;orthogonalLoop=1;jettySize=auto;html=1;exitX=1;exitY=0.5;exitDx=0;exitDy=0;" edge="1" parent="1" source="x0GDKighpi3gE4glOrAO-5" target="x0GDKighpi3gE4glOrAO-6">
          <mxGeometry relative="1" as="geometry">
            <Array as="points">
              <mxPoint x="400" y="420" />
              <mxPoint x="400" y="302" />
            </Array>
          </mxGeometry>
        </mxCell>
      </root>
    </mxGraphModel>
  </diagram>
</mxfile>
